{
    "SystemConfiguration": {
        "Comments": [
            {
                "Comment": "Export type is Clone,JSON,Selective"
            },
            {
                "Comment": "Exported configuration may contain commented attributes. Attributes may be commented due to dependency, destructive nature, preserving server identity or for security reasons."
            }
        ],
        "Model": "PowerEdge R6525",
        "ServiceTag": "9J20WC3",
        "TimeStamp": "Fri Nov  5 11:28:51 2021",
        "Components": [

            {
                "FQDD": "AHCI.Slot.3-1",
                "Attributes": [
                    {
                        "Name": "RAIDresetConfig",
                        "Value": "True",
                        "Set On Import": "True",
                        "Comment": "Read and Write"
                    },
                    {
                        "Name": "RAIDforeignConfig",
                        "Value": "Clear",
                        "Set On Import": "True",
                        "Comment": "Read and Write"
                    }
                ],
                "Components": [
                    {
                        "FQDD": "Disk.Virtual.0:AHCI.Slot.3-1",
                        "Attributes": [
                            {
                                "Name": "RAIDaction",
                                "Value": "Create",
                                "Set On Import": "True",
                                "Comment": "Read and Write"
                            },
                            {
                                "Name": "RAIDinitOperation",
                                "Value": "None",
                                "Set On Import": "True",
                                "Comment": "Read and Write"
                            },
                            {
                                "Name": "DiskCachePolicy",
                                "Value": "Default",
                                "Set On Import": "True",
                                "Comment": "Read and Write"
                            },
                            {
                                "Name": "RAIDdefaultWritePolicy",
                                "Value": "WriteThrough",
                                "Set On Import": "True",
                                "Comment": "Read and Write"
                            },
                            {
                                "Name": "RAIDdefaultReadPolicy",
                                "Value": "NoReadAhead",
                                "Set On Import": "True",
                                "Comment": "Read and Write"
                            },
                            {
                                "Name": "Name",
                                "Value": "VD_R1_1",
                                "Set On Import": "True",
                                "Comment": "Read and Write"
                            },
                            {
                                "Name": "Size",
                                "Value": "0",
                                "Set On Import": "True",
                                "Comment": "Read and Write"
                            },
                            {
                                "Name": "StripeSize",
                                "Value": "128",
                                "Set On Import": "True",
                                "Comment": "Read and Write"
                            },
                            {
                                "Name": "SpanDepth",
                                "Value": "1",
                                "Set On Import": "True",
                                "Comment": "Read and Write"
                            },
                            {
                                "Name": "SpanLength",
                                "Value": "2",
                                "Set On Import": "True",
                                "Comment": "Read and Write"
                            },
                            {
                                "Name": "RAIDTypes",
                                "Value": "RAID 1",
                                "Set On Import": "True",
                                "Comment": "Read and Write"
                            },
                            {
                                "Name": "IncludedPhysicalDiskID",
                                "Value": "Disk.Direct.0-0:AHCI.Slot.3-1",
                                "Set On Import": "True",
                                "Comment": "Read and Write"
                            },
                            {
                                "Name": "IncludedPhysicalDiskID",
                                "Value": "Disk.Direct.1-1:AHCI.Slot.3-1",
                                "Set On Import": "True",
                                "Comment": "Read and Write"
                            }
                        ]
		    }
		]
            }
        ]
    }
}
